…
L = 13
x %>% 
  tq_mutate(select = x, mutate_fun = rollapply, width = L, align = "right",
    FUN = geom_decay,
    #function args
    rate = 0.8,
    l = seq(from = 0 , to = L-1),
    #ts_mutate
    col_rename = "adstock_geometric_decay"
  )
#> # A tibble: 104 x 3
#>        x date       adstock_geometric_decay
#>    <dbl> <date>                       <dbl>
#>  1   100 2018-01-01                      NA
#>  2   100 2018-01-08                      NA
#>  3   100 2018-01-15                      NA
#>  4   100 2018-01-22                      NA
#>  5   100 2018-01-29                      NA
#>  6     0 2018-02-05                      NA
#>  7     0 2018-02-12                      NA
#>  8     0 2018-02-19                      NA
#>  9     0 2018-02-26                      NA
#> 10     0 2018-03-05                      NA
#> # … with 94 more rows
x %>% 
  tq_mutate(select = x, mutate_fun = rollapply, width = L, align = "right",
    FUN = delayed_decay,
    #function args
    rate = 0.8, # rate of 0.4 to 0.8 is sensible  
    theta = 1,   # theta should be about 1 to 3 
    l = seq(from = 0 , to = L-1),
    #ts_mutate
    col_rename = "adstock_delayed_decay"
  )
#> # A tibble: 104 x 3
#>        x date       adstock_delayed_decay
#>    <dbl> <date>                     <dbl>
#>  1   100 2018-01-01                    NA
#>  2   100 2018-01-08                    NA
#>  3   100 2018-01-15                    NA
#>  4   100 2018-01-22                    NA
#>  5   100 2018-01-29                    NA
#>  6     0 2018-02-05                    NA
#>  7     0 2018-02-12                    NA
#>  8     0 2018-02-19                    NA
#>  9     0 2018-02-26                    NA
#> 10     0 2018-03-05                    NA
#> # … with 94 more rows
```
…
clean_data <- fat_data %>% 
  select(date, sales,m_tv,m_rd,m_online,price,e) %>% 
  na.omit()
clean_data
#> # A tibble: 92 x 7
#>    date       sales  m_tv  m_rd m_online    price        e
#>    <date>     <dbl> <dbl> <dbl>    <dbl>    <dbl>    <dbl>
#>  1 2017-03-26  5.08 0.597 0.471    0.227 -0.129   -0.146  
#>  2 2017-04-02  5.35 0.619 0.483    0.226 -0.0789   0.0601 
#>  3 2017-04-09  5.24 0.606 0.469    0.210 -0.0167  -0.0378 
#>  4 2017-04-16  5.18 0.547 0.452    0.198  0.0544  -0.0471 
#>  5 2017-04-23  5.07 0.470 0.435    0.200  0.122   -0.0972 
#>  6 2017-04-30  5.21 0.568 0.434    0.223  0.151   -0.0909 
#>  7 2017-05-07  5.36 0.633 0.430    0.233  0.125    0.00352
#>  8 2017-05-14  5.37 0.640 0.446    0.223  0.0671   0.0318 
#>  9 2017-05-21  5.12 0.625 0.427    0.201  0.00162 -0.131  
#> 10 2017-05-28  5.10 0.596 0.364    0.188  0.0200  -0.0628 
#> # … with 82 more rows
```
…
